{
  "routes": [
    {
      "method": "GET",
      "path": "/recipetags",
      "handler": "Recipetag.find",
      "config": {
        "policies": []
      }
    },
    {
      "method": "GET",
      "path": "/recipetags/count",
      "handler": "Recipetag.count",
      "config": {
        "policies": []
      }
    },
    {
      "method": "GET",
      "path": "/recipetags/:_id",
      "handler": "Recipetag.findOne",
      "config": {
        "policies": []
      }
    },
    {
      "method": "POST",
      "path": "/recipetags",
      "handler": "Recipetag.create",
      "config": {
        "policies": []
      }
    },
    {
      "method": "PUT",
      "path": "/recipetags/:_id",
      "handler": "Recipetag.update",
      "config": {
        "policies": []
      }
    },
    {
      "method": "DELETE",
      "path": "/recipetags/:_id",
      "handler": "Recipetag.destroy",
      "config": {
        "policies": []
      }
    }
  ]
}